[["B19301_001E","state","county","tract","block group"],
["62721","51","013","100100","1"],
["56324","51","013","100100","2"],
["69363","51","013","100100","3"],
["66618","51","013","100100","4"],
["106549","51","013","100200","1"],
["78695","51","013","100200","2"],
["92958","51","013","100200","3"],
["80060","51","013","100200","4"],
["72759","51","013","100200","5"],
["82211","51","013","100200","6"],
["115597","51","013","100300","1"],
["96352","51","013","100300","2"],
["86846","51","013","100300","3"],
["151874","51","013","100300","4"],
["51250","51","013","100300","5"],
["97215","51","013","100400","1"],
["76711","51","013","100400","2"],
["112307","51","013","100400","3"],
["68058","51","013","100500","1"],
["68436","51","013","100500","2"],
["79379","51","013","100500","3"],
["67145","51","013","100500","4"],
["59026","51","013","100600","1"],
["47710","51","013","100600","2"],
["68219","51","013","100600","3"],
["60787","51","013","100700","1"],
["59976","51","013","100700","2"],
["54537","51","013","100700","3"],
["72742","51","013","100700","4"],
["43286","51","013","100700","5"],
["87459","51","013","100700","6"],
["28225","51","013","100800","1"],
["26507","51","013","100800","2"],
["70895","51","013","100900","1"],
["67787","51","013","100900","2"],
["51931","51","013","100900","3"],
["34286","51","013","100900","4"],
["61324","51","013","101000","1"],
["70009","51","013","101000","2"],
["46149","51","013","101000","3"],
["58384","51","013","101000","4"],
["59754","51","013","101100","1"],
["70303","51","013","101100","2"],
["70787","51","013","101100","3"],
["67490","51","013","101100","4"],
["65920","51","013","101100","5"],
["55275","51","013","101200","1"],
["49924","51","013","101200","2"],
["62625","51","013","101200","3"],
["53315","51","013","101300","1"],
["52469","51","013","101300","2"],
["64632","51","013","101300","3"],
["74713","51","013","101300","4"],
["50292","51","013","101300","5"],
["72778","51","013","101300","6"],
["60885","51","013","101401","1"],
["60989","51","013","101402","1"],
["72592","51","013","101402","2"],
["88637","51","013","101402","3"],
["84365","51","013","101403","1"],
["68973","51","013","101403","2"],
["76559","51","013","101403","3"],
["67326","51","013","101403","4"],
["76106","51","013","101404","1"],
["53344","51","013","101500","1"],
["55214","51","013","101500","2"],
["88276","51","013","101500","3"],
["55564","51","013","101500","4"],
["79395","51","013","101500","5"],
["44938","51","013","101500","6"],
["65917","51","013","101601","1"],
["51661","51","013","101601","2"],
["69827","51","013","101602","1"],
["57830","51","013","101602","2"],
["71403","51","013","101603","1"],
["78892","51","013","101603","2"],
["50418","51","013","101603","3"],
["43704","51","013","101701","1"],
["68481","51","013","101701","2"],
["31043","51","013","101701","3"],
["58824","51","013","101701","4"],
["40755","51","013","101702","1"],
["77092","51","013","101702","2"],
["50020","51","013","101702","3"],
["43174","51","013","101703","1"],
["89704","51","013","101703","2"],
["89666","51","013","101801","1"],
["79357","51","013","101802","1"],
["87354","51","013","101802","2"],
["108251","51","013","101802","3"],
["22665","51","013","101802","4"],
["80924","51","013","101802","5"],
["69607","51","013","101803","1"],
["48439","51","013","101803","2"],
["36869","51","013","101803","3"],
["83603","51","013","101803","4"],
["75137","51","013","101900","1"],
["76857","51","013","101900","2"],
["72034","51","013","101900","3"],
["42084","51","013","102001","1"],
["40572","51","013","102001","2"],
["45641","51","013","102002","1"],
["37462","51","013","102003","1"],
["22100","51","013","102003","2"],
["45667","51","013","102003","3"],
["30741","51","013","102100","1"],
["44553","51","013","102100","2"],
["19774","51","013","102200","1"],
["12001","51","013","102200","2"],
["35316","51","013","102200","3"],
["23640","51","013","102200","4"],
["18414","51","013","102200","5"],
["66019","51","013","102301","1"],
["48802","51","013","102301","2"],
["18094","51","013","102302","1"],
["32216","51","013","102302","2"],
["41850","51","013","102302","3"],
["46605","51","013","102302","4"],
["46584","51","013","102400","1"],
["36005","51","013","102400","2"],
["48023","51","013","102400","3"],
["51360","51","013","102400","4"],
["45997","51","013","102500","1"],
["44842","51","013","102500","2"],
["52520","51","013","102500","3"],
["30183","51","013","102600","1"],
["40659","51","013","102600","2"],
["22236","51","013","102701","1"],
["24007","51","013","102701","2"],
["50507","51","013","102702","1"],
["27773","51","013","102702","2"],
["30493","51","013","102801","1"],
["25830","51","013","102801","2"],
["50678","51","013","102801","3"],
["36345","51","013","102801","4"],
["51622","51","013","102801","5"],
["26896","51","013","102801","6"],
["58251","51","013","102802","1"],
["56765","51","013","102802","2"],
["71513","51","013","102901","1"],
["70718","51","013","102901","2"],
["64664","51","013","102901","3"],
["53509","51","013","102902","1"],
["79091","51","013","102902","2"],
["66379","51","013","103000","1"],
["57533","51","013","103000","2"],
["60335","51","013","103000","3"],
["36387","51","013","103100","1"],
["42070","51","013","103100","2"],
["22515","51","013","103100","3"],
["32630","51","013","103200","1"],
["44166","51","013","103200","2"],
["65608","51","013","103200","3"],
["37426","51","013","103200","4"],
["30698","51","013","103300","1"],
["34341","51","013","103300","2"],
["23714","51","013","103401","1"],
["78142","51","013","103402","1"],
["54687","51","013","103402","2"],
["82638","51","013","103402","3"],
["60654","51","013","103402","4"],
["89114","51","013","103402","5"],
["70720","51","013","103501","1"],
["67234","51","013","103501","2"],
["52180","51","013","103501","3"],
["80148","51","013","103502","1"],
["41742","51","013","103502","2"],
["63613","51","013","103503","1"],
["71452","51","013","103503","2"],
["59643","51","013","103601","1"],
["65249","51","013","103601","2"],
["57326","51","013","103601","3"],
["62674","51","013","103602","1"],
["51861","51","013","103602","2"],
["74675","51","013","103700","1"],
["78360","51","013","103700","2"],
["44567","51","013","103800","1"],
["35470","51","013","103800","2"],
["61246","51","013","103800","3"],
[null,"51","013","980100","1"],
["66393","51","013","980200","1"]]